%YAML 1.1
%TAG !u! tag:unity3d.com,2011:
--- !u!162 &1
EditorUserSettings:
  m_ObjectHideFlags: 0
  serializedVersion: 4
  m_ConfigSettings:
    RecentlyUsedScenePath-0:
      value: 224247031146467908060d34192c4d32041e1b213f67153120391136f1af042aede024e8ea373a2e2a33fa350735322bf3181d2ce3020e0e5e2af20014b0341c1fc02bc61fc61a53ef1612cbfe1ed4edd098c1e4d1fffe
      flags: 0
    RecentlyUsedScenePath-1:
      value: 224247031146467908060d34192c4d32041e1b213f67153120391136f1af052debe43ddaf33b2d281e17e63801712530fc0f462ff9050f38120bf30b5edb1f1d14f61bc014cd5109c51008d7
      flags: 0
    RecentlyUsedScenePath-2:
      value: 22424703114646680e0b0227036c6c111b07142f1f2b233e2867083debf42d
      flags: 0
    vcSharedLogLevel:
      value: 0d5e400f0650
      flags: 0
  m_VCAutomaticAdd: 1
  m_VCDebugCom: 0
  m_VCDebugCmd: 0
  m_VCDebugOut: 0
  m_SemanticMergeMode: 2
  m_VCShowFailedCheckout: 1
  m_VCOverwriteFailedCheckoutAssets: 1
  m_VCProjectOverlayIcons: 1
  m_VCHierarchyOverlayIcons: 1
  m_VCOtherOverlayIcons: 1
  m_VCAllowAsyncUpdate: 1
